…
`pmc_text` splits paragraphs into sentences and includes the full path to the subsection title.

``` r
library(tidypmc)
library(dplyr)
txt <- pmc_text(doc)
#  Note: removing disp-formula nested in sec/p tag
txt
#  # A tibble: 194 x 4
#     section    paragraph sentence text                                                                                                                           
#     <chr>          <int>    <int> <chr>                                                                                                                          
#   1 Title              1        1 Comparative transcriptomics in Yersinia pestis: a global view of environmental modulation of gene expression                   
#   2 Abstract           1        1 Environmental modulation of gene expression in Yersinia pestis is critical for its life style and pathogenesis.                
#   3 Abstract           1        2 Using cDNA microarray technology, we have analyzed the global gene expression of this deadly pathogen when grown under differe…
#   4 Abstract           2        1 To provide us with a comprehensive view of environmental modulation of global gene expression in Y. pestis, we have analyzed t…
#   5 Abstract           2        2 Almost all known virulence genes of Y. pestis were differentially regulated under multiple environmental perturbations.        
#   6 Abstract           2        3 Clustering enabled us to functionally classify co-expressed genes, including some uncharacterized genes.                       
#   7 Abstract           2        4 Collections of operons were predicted from the microarray data, and some of these were confirmed by reverse-transcription poly…
#   8 Abstract           2        5 Several regulatory DNA motifs, probably recognized by the regulatory protein Fur, PurR, or Fnr, were predicted from the cluste…
#   9 Abstract           3        1 The comparative transcriptomics analysis we present here not only benefits our understanding of the molecular determinants of …
#  10 Background         1        1 Yersinia pestis is the etiological agent of plague, alternatively growing in fleas or warm-blood mammals [1].                  
#  # … with 184 more rows
count(txt, section)
#  # A tibble: 21 x 2
#     section                                                  n
#     <chr>                                                <int>
#   1 Abstract                                                 8
#   2 Authors' contributions                                   6
#   3 Background                                              20
#   4 Conclusion                                               3
#   5 Methods; Clustering analysis                             7
#   6 Methods; Collection of microarray expression data       17
#   7 Methods; Discovery of regulatory DNA motifs              8
#   8 Methods; Gel mobility shift analysis of Fur binding     13
#   9 Methods; Operon prediction                               5
#  10 Methods; Verification of predicted operons by RT-PCR     7
#  # … with 11 more rows
```
…
`pmc_table` formats tables by collapsing multiline headers, expanding rowspan and colspan attributes and adding subheadings into a new column.

``` r
tab1 <- pmc_table(doc)
#  Found 4 tables
#  Adding footnotes to Table 1
sapply(tab1, nrow)
#  Table 1 Table 2 Table 3 Table 4 
#       39      23       4      34
tab1[[1]]
#  # A tibble: 39 x 5
#     subheading                    `Potential operon (r value)` `Gene ID`    `Putative or predicted function`      `Reference (s)`
#     <chr>                         <chr>                        <chr>        <chr>                                 <chr>          
#   1 Iron uptake or heme synthesis yfeABCD operon* (r > 0.91)   YPO2439-2442 Transport/binding chelated iron       yfeABCD [54]   
#   2 Iron uptake or heme synthesis hmuRSTUV operon (r > 0.90)   YPO0279-0283 Transport/binding hemin               hmuRSTUV [55]  
#   3 Iron uptake or heme synthesis ysuJIHG* (r > 0.95)          YPO1529-1532 Iron uptake                           -              
#   4 Iron uptake or heme synthesis sufABCDS* (r > 0.90)         YPO2400-2404 Iron-regulated Fe-S cluster assembly? -              
#   5 Iron uptake or heme synthesis YPO1854-1856* (r > 0.97)     YPO1854-1856 Iron uptake or heme synthesis?        -              
#   6 Sulfur metabolism             tauABCD operon (r > 0.90)    YPO0182-0185 Transport/binding taurine             tauABCD [56]   
#   7 Sulfur metabolism             ssuEADCB operon (r > 0.97)   YPO3623-3627 Sulphur metabolism                    ssu operon [57]
#   8 Sulfur metabolism             cys operon (r > 0.92)        YPO3010-3015 Cysteine synthesis                    -              
#   9 Sulfur metabolism             YPO1317-1319 (r > 0.97)      YPO1317-1319 Sulfur metabolism?                    -              
#  10 Sulfur metabolism             YPO4109-4111 (r > 0.90)      YPO4109-4111 Sulfur metabolism?                    -              
#  # … with 29 more rows
```
…
Use `collapse_rows` to join column names and cell values in a semi-colon delimited string (and then search using functions in the next section).

``` r
collapse_rows(tab1, na.string="-")
#  # A tibble: 100 x 3
#     table     row text                                                                                                                                                               
#     <chr>   <int> <chr>                                                                                                                                                              
#   1 Table 1     1 subheading=Iron uptake or heme synthesis; Potential operon (r value)=yfeABCD operon* (r > 0.91); Gene ID=YPO2439-2442; Putative or predicted function=Transport/bi…
#   2 Table 1     2 subheading=Iron uptake or heme synthesis; Potential operon (r value)=hmuRSTUV operon (r > 0.90); Gene ID=YPO0279-0283; Putative or predicted function=Transport/bi…
#   3 Table 1     3 subheading=Iron uptake or heme synthesis; Potential operon (r value)=ysuJIHG* (r > 0.95); Gene ID=YPO1529-1532; Putative or predicted function=Iron uptake         
#   4 Table 1     4 subheading=Iron uptake or heme synthesis; Potential operon (r value)=sufABCDS* (r > 0.90); Gene ID=YPO2400-2404; Putative or predicted function=Iron-regulated Fe-…
#   5 Table 1     5 subheading=Iron uptake or heme synthesis; Potential operon (r value)=YPO1854-1856* (r > 0.97); Gene ID=YPO1854-1856; Putative or predicted function=Iron uptake or…
#   6 Table 1     6 subheading=Sulfur metabolism; Potential operon (r value)=tauABCD operon (r > 0.90); Gene ID=YPO0182-0185; Putative or predicted function=Transport/binding taurine…
#   7 Table 1     7 subheading=Sulfur metabolism; Potential operon (r value)=ssuEADCB operon (r > 0.97); Gene ID=YPO3623-3627; Putative or predicted function=Sulphur metabolism; Refe…
#   8 Table 1     8 subheading=Sulfur metabolism; Potential operon (r value)=cys operon (r > 0.92); Gene ID=YPO3010-3015; Putative or predicted function=Cysteine synthesis            
#   9 Table 1     9 subheading=Sulfur metabolism; Potential operon (r value)=YPO1317-1319 (r > 0.97); Gene ID=YPO1317-1319; Putative or predicted function=Sulfur metabolism?          
#  10 Table 1    10 subheading=Sulfur metabolism; Potential operon (r value)=YPO4109-4111 (r > 0.90); Gene ID=YPO4109-4111; Putative or predicted function=Sulfur metabolism?          
#  # … with 90 more rows
```

`pmc_reference` extracts the id, pmid, authors, year, title, journal, volume, pages, and DOIs from reference tags.

``` r
ref1 <- pmc_reference(doc)
#  Found 76 citation tags
ref1
#  # A tibble: 76 x 9
#        id pmid   authors                                                year title                                        journal     volume pages  doi          
#     <int> <chr>  <chr>                                                 <int> <chr>                                        <chr>       <chr>  <chr>  <chr>        
#   1     1 89938… Perry RD, Fetherston JD                                1997 Yersinia pestis--etiologic agent of plague   Clin Micro… 10     35-66  <NA>         
#   2     2 16053… Hinnebusch BJ                                          2005 The evolution of flea-borne transmission in… Curr Issue… 7      197-2… <NA>         
#   3     3 64693… Straley SC, Harmon PA                                  1984 Yersinia pestis grows within phagolysosomes… Infect Imm… 45     655-6… <NA>         
#   4     4 15557… Huang XZ, Lindler LE                                   2004 The pH 6 antigen is an antiphagocytic facto… Infect Imm… 72     7212-… 10.1128/IAI.…
#   5     5 15721… Pujol C, Bliska JB                                     2005 Turning Yersinia pathogenesis outside in: s… Clin Immun… 114    216-2… 10.1016/j.cl…
#   6     6 12732… Rhodius VA, LaRossa RA                                 2003 Uses and pitfalls of microarrays for studyi… Curr Opin … 6      114-1… 10.1016/S136…
#   7     7 15342… Motin VL, Georgescu AM, Fitch JP, Gu PP, Nelson DO, …  2004 Temporal global changes in gene expression … J Bacteriol 186    6298-… 10.1128/JB.1…
#   8     8 15557… Han Y, Zhou D, Pang X, Song Y, Zhang L, Bao J, Tong …  2004 Microarray analysis of temperature-induced … Microbiol … 48     791-8… <NA>         
#   9     9 15777… Han Y, Zhou D, Pang X, Zhang L, Song Y, Tong Z, Bao …  2005 DNA microarray analysis of the heat- and co… Microbes I… 7      335-3… 10.1016/j.mi…
#  10    10 15808… Han Y, Zhou D, Pang X, Zhang L, Song Y, Tong Z, Bao …  2005 Comparative transcriptome analysis of Yersi… Res Microb… 156    403-4… 10.1016/j.re…
#  # … with 66 more rows
```
…
A few wrappers search pre-defined patterns and add an extra step to expand matched ranges. `separate_refs` matches references within brackets using `\\[[0-9, -]+\\]` and expands ranges like `[7-9]`.

``` r
x <- separate_refs(txt)
x
#  # A tibble: 93 x 6
#        id match section    paragraph sentence text                                                                                                               
#     <dbl> <chr> <chr>          <int>    <int> <chr>                                                                                                              
#   1     1 [1]   Background         1        1 Yersinia pestis is the etiological agent of plague, alternatively growing in fleas or warm-blood mammals [1].      
#   2     2 [2]   Background         1        3 To produce a transmissible infection, Y. pestis colonizes the flea midgut and forms a biofilm in the proventricula…
#   3     3 [3]   Background         1        9 However, a few bacilli are taken up by tissue macrophages, providing a fastidious and unoccupied niche for Y. pest…
#   4     4 [4,5] Background         1       10 Residence in this niche also facilitates the bacteria's resistance to phagocytosis [4,5].                          
#   5     5 [4,5] Background         1       10 Residence in this niche also facilitates the bacteria's resistance to phagocytosis [4,5].                          
#   6     6 [6]   Background         2        1 A DNA microarray is able to determine simultaneous changes in all the genes of a cell at the mRNA level [6].       
#   7     7 [7-9] Background         2        2 We and others have measured the gene expression profiles of Y. pestis in response to a variety of stimulating cond…
#   8     8 [7-9] Background         2        2 We and others have measured the gene expression profiles of Y. pestis in response to a variety of stimulating cond…
#   9     9 [7-9] Background         2        2 We and others have measured the gene expression profiles of Y. pestis in response to a variety of stimulating cond…
#  10    10 [10]  Background         2        2 We and others have measured the gene expression profiles of Y. pestis in response to a variety of stimulating cond…
#  # … with 83 more rows
…
`separate_genes` expands microbial gene operons like `hmsHFRS` into four separate genes.

``` r
separate_genes(txt)
#  # A tibble: 104 x 6
#     gene  match  section                                        paragraph sentence text                                                                          
#     <chr> <chr>  <chr>                                              <int>    <int> <chr>                                                                         
#   1 purR  PurR   Abstract                                               2        5 Several regulatory DNA motifs, probably recognized by the regulatory protein …
#   2 phoP  PhoP   Background                                             2        3 We also identified the regulons controlled by each of the regulatory proteins…
#   3 ompR  OmpR   Background                                             2        3 We also identified the regulons controlled by each of the regulatory proteins…
#   4 oxyR  OxyR   Background                                             2        3 We also identified the regulons controlled by each of the regulatory proteins…
#   5 csrA  CsrA   Results and Discussion                                 1        3 After the determination of the CsrA, SlyA, and PhoPQ regulons in Samonella ty…
#   6 slyA  SlyA   Results and Discussion                                 1        3 After the determination of the CsrA, SlyA, and PhoPQ regulons in Samonella ty…
#   7 phoP  PhoPQ  Results and Discussion                                 1        3 After the determination of the CsrA, SlyA, and PhoPQ regulons in Samonella ty…
#   8 phoQ  PhoPQ  Results and Discussion                                 1        3 After the determination of the CsrA, SlyA, and PhoPQ regulons in Samonella ty…
#   9 hmsH  hmsHF… Results and Discussion; Virulence genes in re…         3        3 For example, the hemin storage locus, hmsHFRS [23], was repressed by temperat…
#  10 hmsF  hmsHF… Results and Discussion; Virulence genes in re…         3        3 For example, the hemin storage locus, hmsHFRS [23], was repressed by temperat…
#  # … with 94 more rows
```

Finally, `separate_tags` expands locus tag ranges.

``` r
collapse_rows(tab1, na="-") %>% separate_tags("YPO")
#  # A tibble: 270 x 5
#     id      match       table     row text                                                                                                                                                               
#     <chr>   <chr>       <chr>   <int> <chr>                                                                                                                                                              
#   1 YPO2439 YPO2439-24… Table 1     1 subheading=Iron uptake or heme synthesis; Potential operon (r value)=yfeABCD operon* (r > 0.91); Gene ID=YPO2439-2442; Putative or predicted function=Transport/bi…
#   2 YPO2440 YPO2439-24… Table 1     1 subheading=Iron uptake or heme synthesis; Potential operon (r value)=yfeABCD operon* (r > 0.91); Gene ID=YPO2439-2442; Putative or predicted function=Transport/bi…
#   3 YPO2441 YPO2439-24… Table 1     1 subheading=Iron uptake or heme synthesis; Potential operon (r value)=yfeABCD operon* (r > 0.91); Gene ID=YPO2439-2442; Putative or predicted function=Transport/bi…
#   4 YPO2442 YPO2439-24… Table 1     1 subheading=Iron uptake or heme synthesis; Potential operon (r value)=yfeABCD operon* (r > 0.91); Gene ID=YPO2439-2442; Putative or predicted function=Transport/bi…
#   5 YPO0279 YPO0279-02… Table 1     2 subheading=Iron uptake or heme synthesis; Potential operon (r value)=hmuRSTUV operon (r > 0.90); Gene ID=YPO0279-0283; Putative or predicted function=Transport/bi…
#   6 YPO0280 YPO0279-02… Table 1     2 subheading=Iron uptake or heme synthesis; Potential operon (r value)=hmuRSTUV operon (r > 0.90); Gene ID=YPO0279-0283; Putative or predicted function=Transport/bi…
#   7 YPO0281 YPO0279-02… Table 1     2 subheading=Iron uptake or heme synthesis; Potential operon (r value)=hmuRSTUV operon (r > 0.90); Gene ID=YPO0279-0283; Putative or predicted function=Transport/bi…
#   8 YPO0282 YPO0279-02… Table 1     2 subheading=Iron uptake or heme synthesis; Potential operon (r value)=hmuRSTUV operon (r > 0.90); Gene ID=YPO0279-0283; Putative or predicted function=Transport/bi…
#   9 YPO0283 YPO0279-02… Table 1     2 subheading=Iron uptake or heme synthesis; Potential operon (r value)=hmuRSTUV operon (r > 0.90); Gene ID=YPO0279-0283; Putative or predicted function=Transport/bi…
#  10 YPO1529 YPO1529-15… Table 1     3 subheading=Iron uptake or heme synthesis; Potential operon (r value)=ysuJIHG* (r > 0.95); Gene ID=YPO1529-1532; Putative or predicted function=Iron uptake         
#  # … with 260 more rows
```
…
You can now find references using the default pattern.

``` r
txt1b <- pmc_text(doc1)
txt1b$text[16]
#  [1] "In 2017, at least 64 patients succumbed during an outbreak in Madagascar [3]."
separate_refs(txt1b)
#  # A tibble: 86 x 6
#        id match section     paragraph sentence text                                                                                                                                                      
#     <dbl> <chr> <chr>           <int>    <int> <chr>                                                                                                                                                     
#   1     1 [1]   Introducti…         1        1 Plague is a fatal disease caused by the Gram-negative bacterium Yersinia pestis [1] which has been responsible for approximately 200 million deaths in th…
#   2     2 [2]   Introducti…         1        2 Between 2010 and 2015, the World Health Organization (WHO) reported more than 3200 cases with more than 500 deaths [2].                                   
#   3     3 [3]   Introducti…         1        3 In 2017, at least 64 patients succumbed during an outbreak in Madagascar [3].                                                                             
#   4     1 [1]   Introducti…         1        7 At this stage, bacteria are transmissible by air, causing deadly primary pneumonic presentations [1].                                                     
#   5     4 [4]   Introducti…         1        9 Therefore, it is not surprising that temperature controls several biological processes playing a key role in the colonization of both the mammalian host …
#   6     5 [5]   Introducti…         1       10 In fact, previous comparative transcriptomic and proteomic studies have shown that many genes are differentially expressed when temperature increases fro…
#   7     6 [6]   Introducti…         2        1 Reverse transcription quantitative real-time polymerase chain reaction (RT-qPCR) is a widespread [6] gold standard [7] technique to explore transcription…
#   8     7 [7]   Introducti…         2        1 Reverse transcription quantitative real-time polymerase chain reaction (RT-qPCR) is a widespread [6] gold standard [7] technique to explore transcription…
#   9     8 [8]   Introducti…         2        2 It is often the easiest and the most cost effective solution to measure the genes’ expression [8] and to understand complex regulatory networks.          
#  10     7 [7]   Introducti…         2        3 Moreover, the expansion of the RNA sequencing (RNA-seq) did not replace the RT-qPCR because these two techniques work complementarily [7].                
#  # … with 76 more rows
```
